test.utf8
…
Read the dataset.

d <- read_csv("./data/trait_env.csv")

## Parsed with column specification:
## cols(
##   x = col_double(),
##   y = col_double(),
##   hab = col_character(),
##   trait = col_double()
## )

d

## # A tibble: 625 x 4
##        x     y hab      trait
##    <dbl> <dbl> <chr>    <dbl>
##  1     1     1 ridge   1.72  
##  2     2     1 valley -0.542 
##  3     3     1 valley -1.20  
##  4     4     1 ridge   2.64  
##  5     5     1 valley -0.567 
##  6     6     1 valley -0.0680
##  7     7     1 ridge   0.888 
##  8     8     1 ridge   0.0489
##  9     9     1 ridge   0.692 
## 10    10     1 ridge   0.464 
## #  with 615 more rows
…
